<?xml version="1.0" encoding="UTF-8" standalone="no"?>
<!-- Generator: Adobe Illustrator 16.0.0, SVG Export Plug-In . SVG Version: 6.00 Build 0)  -->

<svg
   xmlns:dc="http://purl.org/dc/elements/1.1/"
   xmlns:cc="http://creativecommons.org/ns#"
   xmlns:rdf="http://www.w3.org/1999/02/22-rdf-syntax-ns#"
   xmlns:svg="http://www.w3.org/2000/svg"
   xmlns="http://www.w3.org/2000/svg"
   xmlns:xlink="http://www.w3.org/1999/xlink"
   xmlns:sodipodi="http://sodipodi.sourceforge.net/DTD/sodipodi-0.dtd"
   xmlns:inkscape="http://www.inkscape.org/namespaces/inkscape"
   version="1.1"
   id="Calque_1"
   x="0px"
   y="0px"
   width="141.73px"
   height="141.73px"
   viewBox="0 0 141.73 141.73"
   enable-background="new 0 0 141.73 141.73"
   xml:space="preserve"
   sodipodi:docname="conseiller.svg"
   inkscape:version="0.92.1 r15371"><metadata
     id="metadata41"><rdf:RDF><cc:Work
         rdf:about=""><dc:format>image/svg+xml</dc:format><dc:type
           rdf:resource="http://purl.org/dc/dcmitype/StillImage" /></cc:Work></rdf:RDF></metadata><defs
     id="defs39" /><sodipodi:namedview
     pagecolor="#ffffff"
     bordercolor="#666666"
     borderopacity="1"
     objecttolerance="10"
     gridtolerance="10"
     guidetolerance="10"
     inkscape:pageopacity="0"
     inkscape:pageshadow="2"
     inkscape:window-width="1920"
     inkscape:window-height="1018"
     id="namedview37"
     showgrid="false"
     inkscape:zoom="4.3942712"
     inkscape:cx="21.318208"
     inkscape:cy="69.954722"
     inkscape:window-x="0"
     inkscape:window-y="25"
     inkscape:window-maximized="1"
     inkscape:current-layer="g34" /><g
     id="g22"><defs
       id="defs3"><rect
         id="SVGID_1_"
         x="467.124"
         y="517.865"
         width="53.887"
         height="53.887" /></defs><clipPath
       id="SVGID_2_"><use
         xlink:href="#SVGID_1_"
         overflow="visible"
         id="use5" /></clipPath><g
       clip-path="url(#SVGID_2_)"
       id="g20"><path
         fill="#FFFFFF"
         d="M494.245,542.473c0.537,0,0.964-0.396,1.053-0.907c0.001-0.003,0-0.006,0-0.009    c0.001-0.005,0.004-0.008,0.005-0.013c0.008-0.054,0.032-0.104,0.032-0.16c0-0.6-0.488-1.088-1.09-1.088    c-0.6,0-1.088,0.488-1.088,1.088C493.157,541.984,493.646,542.473,494.245,542.473z"
         id="path8" /><circle
         fill="#FFFFFF"
         cx="488.204"
         cy="551.052"
         r="1.088"
         id="circle10" /><circle
         fill="#FFFFFF"
         cx="503.249"
         cy="542.57"
         r="1.088"
         id="circle12" /><path
         fill="#FFFFFF"
         d="M494.067,517.865c-14.88,0-26.943,12.063-26.943,26.943c0,14.88,12.063,26.943,26.943,26.943    s26.943-12.063,26.943-26.943C521.011,529.928,508.947,517.865,494.067,517.865z M488.204,548.541    c0.285,0,0.556,0.058,0.812,0.146l3.383-5.615c-0.409-0.447-0.665-1.036-0.665-1.688c0-1.385,1.127-2.511,2.512-2.511    c1.276,0,2.322,0.961,2.479,2.195l4.165,0.679c0.343-0.979,1.265-1.688,2.359-1.688c0.632,0,1.202,0.242,1.645,0.628l2.989-2.147    c-0.127-0.3-0.197-0.63-0.197-0.976c0-1.385,1.127-2.511,2.513-2.511c1.385,0,2.512,1.126,2.512,2.511    c0,1.386-1.127,2.512-2.512,2.512c-0.522,0-1.008-0.161-1.41-0.435l-3.132,2.25c0.062,0.218,0.105,0.442,0.105,0.68    c0,1.384-1.127,2.511-2.513,2.511c-1.174,0-2.154-0.813-2.427-1.904l-4.324-0.706c-0.407,0.839-1.26,1.424-2.253,1.424    c-0.218,0-0.426-0.037-0.628-0.089l-3.439,5.711c0.332,0.425,0.538,0.953,0.538,1.533c0,1.385-1.127,2.512-2.512,2.512    c-0.646,0-1.229-0.252-1.674-0.653l-3.242,1.804c-0.109,0.061-0.229,0.09-0.345,0.09c-0.25,0-0.492-0.132-0.622-0.365    c-0.191-0.344-0.068-0.776,0.275-0.968l3.19-1.776c-0.055-0.206-0.094-0.419-0.094-0.643    C485.693,549.667,486.819,548.541,488.204,548.541z M512.523,558.086l-3.815,2.909c-0.129,0.1-0.279,0.146-0.43,0.146    c-0.215,0-0.427-0.096-0.566-0.28c-0.239-0.312-0.178-0.759,0.134-0.997l2.173-1.657h-28.689c-1.572,0-2.852-1.216-2.852-2.711    V533.28l-1.883,2.315c-0.141,0.172-0.346,0.262-0.553,0.262c-0.158,0-0.316-0.052-0.447-0.159    c-0.306-0.248-0.352-0.696-0.104-1.001l2.908-3.578c0.174-0.214,0.446-0.292,0.698-0.239c0.253-0.053,0.524,0.025,0.698,0.239    l2.91,3.578c0.246,0.305,0.201,0.753-0.104,1.001c-0.132,0.107-0.29,0.159-0.448,0.159c-0.207,0-0.412-0.09-0.552-0.263    l-1.701-2.091v21.992c0,0.71,0.642,1.288,1.429,1.288h29.008l-2.491-1.899c-0.313-0.237-0.373-0.685-0.134-0.996    c0.238-0.313,0.686-0.373,0.997-0.136l3.815,2.91c0.225,0.172,0.314,0.453,0.259,0.714    C512.837,557.636,512.749,557.915,512.523,558.086z"
         id="path14" /><path
         fill="#FFFFFF"
         d="M479.059,532.565c0.022-0.004,0.044-0.012,0.067-0.014l-0.028-0.035L479.059,532.565z"
         id="path16" /><circle
         fill="#FFFFFF"
         cx="510.198"
         cy="537.565"
         r="1.088"
         id="circle18" /></g></g><g
     id="g34"><defs
       id="defs25"><rect
         id="SVGID_3_"
         x="26.684"
         y="27.667"
         width="92.816"
         height="92.816" /></defs><clipPath
       id="SVGID_4_"><use
         xlink:href="#SVGID_3_"
         overflow="visible"
         id="use27" /></clipPath><path
       clip-path="url(#SVGID_4_)"
       d="M 73.091797 27.666016 C 47.459797 27.666016 26.683594 48.443172 26.683594 74.076172 C 26.683594 99.707172 47.458797 120.48242 73.091797 120.48242 C 98.722797 120.48242 119.5 99.707172 119.5 74.076172 C 119.5 48.444172 98.722797 27.666016 73.091797 27.666016 z M 73.091797 44.505859 C 82.941547 44.505859 92.793781 50.977422 96.175781 63.919922 L 101.30078 66.095703 C 102.43378 70.840703 102.2853 75.632328 101.1543 80.361328 C 100.9663 81.146328 100.43159 81.857422 99.558594 81.857422 C 97.411594 81.857422 95.478031 81.864422 93.332031 81.857422 C 92.336031 81.851422 91.738766 81.295828 91.759766 80.298828 L 91.603516 63.115234 C 88.022516 44.109234 57.895547 44.084141 54.310547 63.119141 L 54.212891 80.285156 C 54.234891 81.295156 53.631672 81.851422 52.638672 81.857422 C 50.491672 81.864422 48.772047 81.857422 46.623047 81.857422 C 45.753047 81.857422 45.217297 81.146328 45.029297 80.361328 C 43.897297 75.632328 43.748812 70.840703 44.882812 66.095703 L 50.017578 63.919922 C 53.394578 50.977422 63.242047 44.505859 73.091797 44.505859 z M 96.134766 81.986328 L 95.898438 82.572266 C 95.197438 84.315266 94.358375 86.160219 93.484375 87.824219 C 92.546375 89.621219 91.001281 90.388953 88.863281 90.376953 L 78.539062 90.373047 C 78.230063 91.303047 77.600469 92.726562 76.605469 92.726562 L 70.244141 92.726562 C 66.994141 92.726562 66.981141 85.710938 70.244141 85.710938 L 76.605469 85.710938 C 77.629469 85.710938 78.281172 87.180484 78.576172 88.146484 L 96.134766 81.986328 z M 67.242188 97.597656 L 79.236328 97.597656 C 75.414328 99.197656 71.064188 99.201656 67.242188 97.597656 z M 62.6875 101.11914 L 83.792969 101.11914 C 77.197969 104.48814 69.2815 104.48814 62.6875 101.11914 z "
       id="path30"
       style="fill:#FFFFFF;fill-opacity:1" /></g></svg>
