<?xml version="1.0" encoding="utf-8"?>
<!-- Generator: Adobe Illustrator 16.0.0, SVG Export Plug-In . SVG Version: 6.00 Build 0)  -->
<!DOCTYPE svg PUBLIC "-//W3C//DTD SVG 1.1//EN" "http://www.w3.org/Graphics/SVG/1.1/DTD/svg11.dtd">
<svg version="1.1" id="Calque_1" xmlns="http://www.w3.org/2000/svg" xmlns:xlink="http://www.w3.org/1999/xlink" x="0px" y="0px"
	 width="141.73px" height="141.73px" viewBox="0 0 141.73 141.73" enable-background="new 0 0 141.73 141.73" xml:space="preserve">
<g>
	<defs>
		<rect id="SVGID_1_" x="467.124" y="517.865" width="53.887" height="53.887"/>
	</defs>
	<clipPath id="SVGID_2_">
		<use xlink:href="#SVGID_1_"  overflow="visible"/>
	</clipPath>
	<g clip-path="url(#SVGID_2_)">
		<path fill="#FFFFFF" d="M494.245,542.473c0.537,0,0.964-0.396,1.053-0.907c0.001-0.003,0-0.006,0-0.009
			c0.001-0.005,0.004-0.008,0.005-0.013c0.008-0.054,0.032-0.104,0.032-0.16c0-0.6-0.488-1.088-1.09-1.088
			c-0.6,0-1.088,0.488-1.088,1.088C493.157,541.984,493.646,542.473,494.245,542.473z"/>
		<circle fill="#FFFFFF" cx="488.204" cy="551.052" r="1.088"/>
		<circle fill="#FFFFFF" cx="503.249" cy="542.57" r="1.088"/>
		<path fill="#FFFFFF" d="M494.067,517.865c-14.88,0-26.943,12.063-26.943,26.943c0,14.88,12.063,26.943,26.943,26.943
			s26.943-12.063,26.943-26.943C521.011,529.928,508.947,517.865,494.067,517.865z M488.204,548.541
			c0.285,0,0.556,0.058,0.812,0.146l3.383-5.615c-0.409-0.447-0.665-1.036-0.665-1.688c0-1.385,1.127-2.511,2.512-2.511
			c1.276,0,2.322,0.961,2.479,2.195l4.165,0.679c0.343-0.979,1.265-1.688,2.359-1.688c0.632,0,1.202,0.242,1.645,0.628l2.989-2.147
			c-0.127-0.3-0.197-0.63-0.197-0.976c0-1.385,1.127-2.511,2.513-2.511c1.385,0,2.512,1.126,2.512,2.511
			c0,1.386-1.127,2.512-2.512,2.512c-0.522,0-1.008-0.161-1.41-0.435l-3.132,2.25c0.062,0.218,0.105,0.442,0.105,0.68
			c0,1.384-1.127,2.511-2.513,2.511c-1.174,0-2.154-0.813-2.427-1.904l-4.324-0.706c-0.407,0.839-1.26,1.424-2.253,1.424
			c-0.218,0-0.426-0.037-0.628-0.089l-3.439,5.711c0.332,0.425,0.538,0.953,0.538,1.533c0,1.385-1.127,2.512-2.512,2.512
			c-0.646,0-1.229-0.252-1.674-0.653l-3.242,1.804c-0.109,0.061-0.229,0.09-0.345,0.09c-0.25,0-0.492-0.132-0.622-0.365
			c-0.191-0.344-0.068-0.776,0.275-0.968l3.19-1.776c-0.055-0.206-0.094-0.419-0.094-0.643
			C485.693,549.667,486.819,548.541,488.204,548.541z M512.523,558.086l-3.815,2.909c-0.129,0.1-0.279,0.146-0.43,0.146
			c-0.215,0-0.427-0.096-0.566-0.28c-0.239-0.312-0.178-0.759,0.134-0.997l2.173-1.657h-28.689c-1.572,0-2.852-1.216-2.852-2.711
			V533.28l-1.883,2.315c-0.141,0.172-0.346,0.262-0.553,0.262c-0.158,0-0.316-0.052-0.447-0.159
			c-0.306-0.248-0.352-0.696-0.104-1.001l2.908-3.578c0.174-0.214,0.446-0.292,0.698-0.239c0.253-0.053,0.524,0.025,0.698,0.239
			l2.91,3.578c0.246,0.305,0.201,0.753-0.104,1.001c-0.132,0.107-0.29,0.159-0.448,0.159c-0.207,0-0.412-0.09-0.552-0.263
			l-1.701-2.091v21.992c0,0.71,0.642,1.288,1.429,1.288h29.008l-2.491-1.899c-0.313-0.237-0.373-0.685-0.134-0.996
			c0.238-0.313,0.686-0.373,0.997-0.136l3.815,2.91c0.225,0.172,0.314,0.453,0.259,0.714
			C512.837,557.636,512.749,557.915,512.523,558.086z"/>
		<path fill="#FFFFFF" d="M479.059,532.565c0.022-0.004,0.044-0.012,0.067-0.014l-0.028-0.035L479.059,532.565z"/>
		<circle fill="#FFFFFF" cx="510.198" cy="537.565" r="1.088"/>
	</g>
</g>
<g>
	<defs>
		<rect id="SVGID_3_" x="20.167" y="23.535" width="99.333" height="99.333"/>
	</defs>
	<clipPath id="SVGID_4_">
		<use xlink:href="#SVGID_3_"  overflow="visible"/>
	</clipPath>
	<g clip-path="url(#SVGID_4_)">
		<path fill="#FFFFFF" d="M82.01,80.557c-3.129,0-5.675,2.545-5.675,5.674c0,3.131,2.546,5.676,5.675,5.676
			c3.128,0,5.674-2.545,5.674-5.676C87.684,83.102,85.138,80.557,82.01,80.557z"/>
		<path fill="#FFFFFF" d="M60.842,64.131c0.301-0.52,0.923-0.754,1.492-0.569l2.648,0.866c0.578,0.187,1.215-0.141,1.4-0.708
			c0.188-0.583-0.128-1.212-0.711-1.403l-2.646-0.865c-0.57-0.186-0.933-0.748-0.87-1.342c0.128-1.2,0.034-2.412-0.275-3.597
			c-0.156-0.58,0.118-1.186,0.653-1.456l2.48-1.262c0.269-0.131,0.464-0.36,0.557-0.641c0.09-0.282,0.068-0.585-0.069-0.85
			c-0.266-0.531-0.954-0.761-1.495-0.488l-2.478,1.259c-0.534,0.271-1.189,0.133-1.564-0.333c-0.767-0.948-1.685-1.737-2.735-2.349
			c-0.518-0.301-0.755-0.924-0.57-1.493l0.864-2.645c0.094-0.283,0.069-0.582-0.064-0.85c-0.133-0.263-0.361-0.459-0.641-0.549
			c-0.589-0.192-1.216,0.141-1.403,0.709l-0.863,2.643c-0.186,0.569-0.743,0.936-1.337,0.869c-1.198-0.126-2.421-0.029-3.604,0.281
			c-0.58,0.155-1.186-0.12-1.454-0.655l-1.26-2.486c-0.268-0.527-0.954-0.758-1.494-0.486c-0.544,0.275-0.763,0.949-0.486,1.495
			l1.26,2.483c0.271,0.535,0.13,1.188-0.335,1.563c-0.939,0.76-1.729,1.68-2.345,2.736c-0.303,0.519-0.926,0.756-1.496,0.567
			l-2.645-0.866c-0.11-0.036-0.227-0.056-0.344-0.056c-0.483,0-0.907,0.308-1.059,0.767c-0.188,0.582,0.129,1.212,0.711,1.403
			l2.645,0.863c0.571,0.186,0.933,0.746,0.87,1.34c-0.126,1.205-0.03,2.414,0.279,3.595c0.154,0.582-0.119,1.188-0.654,1.458
			l-2.486,1.26c-0.263,0.132-0.458,0.36-0.551,0.642c-0.093,0.285-0.068,0.587,0.065,0.852c0.19,0.374,0.574,0.607,0.997,0.607
			c0.173,0,0.342-0.042,0.499-0.121l2.482-1.263c0.184-0.091,0.379-0.136,0.576-0.136c0.375,0,0.74,0.164,0.986,0.472
			c0.767,0.946,1.688,1.737,2.736,2.349c0.516,0.303,0.754,0.923,0.569,1.492l-0.868,2.647c-0.187,0.58,0.13,1.212,0.709,1.4
			c0.576,0.191,1.217-0.143,1.404-0.709l0.864-2.648c0.184-0.568,0.746-0.936,1.339-0.869c1.196,0.127,2.419,0.03,3.597-0.278
			c0.582-0.153,1.188,0.12,1.458,0.655l1.257,2.484c0.269,0.525,0.956,0.761,1.496,0.488c0.544-0.277,0.765-0.949,0.488-1.494
			l-1.258-2.482c-0.272-0.536-0.131-1.188,0.332-1.564C59.439,66.101,60.231,65.182,60.842,64.131z M52.167,65.7
			c-0.698,0-1.392-0.109-2.062-0.33c-3.472-1.137-5.375-4.889-4.237-8.361c0.895-2.733,3.425-4.569,6.302-4.569
			c0.698,0,1.39,0.11,2.06,0.328c3.474,1.138,5.375,4.89,4.239,8.362C57.574,63.864,55.043,65.7,52.167,65.7z"/>
		<path fill="#FFFFFF" d="M53.438,55.184c-0.411-0.133-0.839-0.202-1.268-0.202c-1.773,0-3.338,1.131-3.888,2.816
			c-0.701,2.142,0.475,4.455,2.613,5.16c0.415,0.132,0.843,0.202,1.271,0.202c1.773,0,3.334-1.132,3.885-2.818
			C56.753,58.199,55.58,55.885,53.438,55.184z"/>
		<path fill="#FFFFFF" d="M99.95,84.418h-3.608c-0.601,0-1.117-0.42-1.241-1.004c-0.342-1.59-0.961-3.086-1.84-4.443
			c-0.328-0.506-0.258-1.166,0.166-1.592l2.554-2.551c0.342-0.344,0.531-0.797,0.531-1.285c0-0.484-0.189-0.941-0.533-1.287
			c-0.338-0.337-0.796-0.527-1.281-0.527c-0.486,0-0.941,0.189-1.285,0.529l-2.551,2.555c-0.424,0.422-1.085,0.492-1.59,0.166
			c-1.365-0.881-2.86-1.5-4.442-1.842c-0.585-0.127-1.005-0.645-1.005-1.242v-3.607c0-1-0.813-1.813-1.814-1.813
			c-1.003,0-1.819,0.813-1.819,1.813v3.607c0,0.597-0.414,1.115-1.002,1.242c-1.582,0.34-3.075,0.961-4.441,1.842
			c-0.502,0.326-1.164,0.256-1.587-0.166l-2.557-2.555c-0.344-0.341-0.797-0.529-1.281-0.529c-0.486,0-0.943,0.188-1.283,0.529
			c-0.344,0.344-0.534,0.801-0.534,1.287s0.19,0.939,0.534,1.283l2.552,2.551c0.427,0.426,0.495,1.088,0.172,1.592
			c-0.883,1.357-1.504,2.854-1.848,4.443c-0.129,0.584-0.645,1.004-1.243,1.004h-3.608c-0.999,0-1.813,0.813-1.813,1.813
			s0.814,1.816,1.813,1.816h3.608c0.599,0,1.118,0.418,1.243,1.002c0.344,1.59,0.965,3.084,1.848,4.443
			c0.323,0.504,0.255,1.168-0.172,1.592l-2.552,2.551c-0.344,0.342-0.534,0.799-0.534,1.285c0,0.484,0.19,0.939,0.534,1.281
			c0.34,0.344,0.797,0.529,1.283,0.529c0.484,0,0.938-0.186,1.277-0.527l2.561-2.557c0.247-0.244,0.57-0.371,0.9-0.371
			c0.237,0,0.476,0.066,0.687,0.205c1.376,0.887,2.866,1.506,4.438,1.842c0.585,0.123,1.006,0.643,1.006,1.242v3.611
			c0,1,0.816,1.816,1.819,1.816c1.001,0,1.814-0.816,1.814-1.816v-3.611c0-0.6,0.421-1.119,1.009-1.242
			c1.571-0.336,3.063-0.957,4.438-1.842c0.505-0.326,1.166-0.254,1.59,0.168l2.551,2.555c0.344,0.342,0.799,0.527,1.283,0.527
			c0.487,0,0.941-0.186,1.285-0.529c0.342-0.342,0.531-0.799,0.531-1.285s-0.189-0.941-0.531-1.281l-2.554-2.551
			c-0.424-0.424-0.494-1.086-0.166-1.592c0.882-1.363,1.501-2.857,1.84-4.439c0.124-0.584,0.641-1.006,1.241-1.006h3.608
			c1.005,0,1.818-0.816,1.818-1.816S100.955,84.418,99.95,84.418z M82.01,94.449c-4.529,0-8.216-3.688-8.216-8.219
			c0-4.533,3.687-8.217,8.216-8.217s8.217,3.684,8.217,8.217C90.227,90.762,86.539,94.449,82.01,94.449z"/>
		<path fill="#FFFFFF" d="M69.833,23.535c-27.429,0-49.667,22.236-49.667,49.667c0,27.43,22.238,49.666,49.667,49.666
			c27.43,0,49.667-22.236,49.667-49.666C119.5,45.771,97.263,23.535,69.833,23.535z M55.171,73.07l-0.812-1.613
			c-0.815,0.146-1.636,0.213-2.462,0.193l-0.558,1.712c-0.493,1.506-1.89,2.52-3.473,2.52c-0.385,0-0.769-0.063-1.138-0.186
			c-1.91-0.625-2.958-2.691-2.334-4.603l0.56-1.715c-0.675-0.472-1.302-1.01-1.87-1.607l-1.609,0.816
			c-0.51,0.258-1.08,0.396-1.646,0.396c-1.382,0-2.633-0.766-3.262-1.996c-0.444-0.876-0.52-1.868-0.214-2.797
			c0.302-0.927,0.949-1.68,1.819-2.119l1.603-0.814c-0.145-0.814-0.209-1.636-0.191-2.461l-1.71-0.558
			c-1.912-0.626-2.959-2.693-2.337-4.608c0.495-1.507,1.892-2.519,3.475-2.519c0.385,0,0.764,0.061,1.13,0.182l1.714,0.561
			c0.476-0.68,1.012-1.305,1.605-1.874l-0.813-1.606c-0.909-1.798-0.19-4,1.606-4.913c0.511-0.259,1.08-0.393,1.649-0.393
			c1.386,0,2.635,0.765,3.26,1.999l0.816,1.609c0.815-0.146,1.64-0.211,2.462-0.195l0.562-1.708
			c0.491-1.507,1.886-2.519,3.467-2.519c0.386,0,0.769,0.061,1.137,0.182c0.926,0.301,1.679,0.947,2.122,1.818
			c0.439,0.869,0.516,1.859,0.214,2.787l-0.558,1.711c0.675,0.472,1.301,1.01,1.871,1.607l1.606-0.817
			c0.513-0.258,1.081-0.393,1.648-0.393c1.387,0,2.637,0.765,3.262,1.999c0.443,0.871,0.521,1.865,0.214,2.794
			c-0.304,0.927-0.953,1.679-1.822,2.118l-1.603,0.812c0.146,0.817,0.21,1.642,0.192,2.464l1.71,0.56
			c1.914,0.625,2.961,2.692,2.335,4.606c-0.49,1.503-1.885,2.516-3.468,2.516c-0.385,0-0.767-0.061-1.138-0.181l-1.711-0.56
			c-0.472,0.676-1.011,1.303-1.604,1.872l0.814,1.605c0.907,1.798,0.188,3.999-1.605,4.913c-0.512,0.256-1.081,0.395-1.649,0.395
			C57.053,75.068,55.801,74.303,55.171,73.07z M99.95,90.59h-2.614c-0.334,1.186-0.807,2.322-1.41,3.398l1.852,1.846
			c0.822,0.822,1.276,1.916,1.278,3.082c0,1.164-0.453,2.26-1.278,3.084c-0.823,0.822-1.919,1.273-3.082,1.273
			s-2.255-0.451-3.077-1.271l-1.853-1.854c-1.081,0.604-2.219,1.076-3.399,1.41v2.617c0,2.4-1.953,4.357-4.356,4.357
			c-2.405,0-4.36-1.957-4.36-4.357v-2.619c-1.177-0.332-2.314-0.805-3.395-1.408l-1.858,1.854c-0.819,0.82-1.911,1.271-3.074,1.271
			s-2.257-0.451-3.082-1.271c-0.822-0.824-1.276-1.918-1.276-3.082c0-1.166,0.454-2.26,1.276-3.086l1.85-1.846
			c-0.598-1.076-1.073-2.211-1.407-3.398h-2.619c-2.401,0-4.355-1.953-4.355-4.359c0-2.402,1.954-4.354,4.355-4.354h2.619
			c0.334-1.189,0.809-2.328,1.407-3.402l-1.85-1.848c-0.821-0.822-1.276-1.916-1.276-3.08s0.454-2.261,1.276-3.087
			c0.825-0.82,1.919-1.274,3.082-1.274s2.255,0.454,3.077,1.274l1.855,1.853c1.076-0.601,2.21-1.074,3.395-1.41v-2.615
			c0-2.4,1.955-4.355,4.36-4.355c2.403,0,4.356,1.955,4.356,4.355v2.615c1.184,0.336,2.322,0.809,3.399,1.41l1.85-1.853
			c0.825-0.82,1.917-1.274,3.082-1.274c1.163,0,2.257,0.454,3.078,1.274c0.827,0.826,1.28,1.919,1.28,3.083
			c0,1.166-0.456,2.262-1.278,3.084l-1.852,1.848c0.603,1.076,1.073,2.213,1.41,3.402h2.614c2.404,0,4.359,1.951,4.359,4.354
			C104.31,88.637,102.354,90.59,99.95,90.59z"/>
	</g>
</g>
</svg>
